org/wso2/bpmn/listaperitos/v1/SelectedInfoListener.class
org/wso2/bpmn/listaperitos/v1/Configurations/GetInfos.class
org/wso2/bpmn/listaperitos/v1/MultipleSelect.class
org/wso2/bpmn/listaperitos/v1/AgregaPareceres.class
org/wso2/bpmn/listaperitos/v1/ListInfosType.class
org/wso2/bpmn/listaperitos/v1/ListaPeritosServiceTaskV1.class
org/wso2/bpmn/listaperitos/v1/ListaPeritosListener.class
org/wso2/bpmn/listaperitos/v1/Preco.class
org/wso2/bpmn/listaperitos/v1/Configurations/ConfigFile.class
org/wso2/bpmn/listaperitos/v1/SimpleSelect.class
org/wso2/bpmn/listaperitos/v1/Configurations/ConfigApp.class
org/wso2/bpmn/listaperitos/v1/Configurations/SaveInfos.class
org/wso2/bpmn/listaperitos/v1/ChooseSupplier.class
