org/wso2/bpmn/listaperitos/v1/ConfigFile.class
org/wso2/bpmn/listaperitos/v1/ConfigApp.class
org/wso2/bpmn/listaperitos/v1/SelectedInfoListener.class
org/wso2/bpmn/listaperitos/v1/ListaPeritosServiceTaskV1.class
org/wso2/bpmn/listaperitos/v1/SimpleSelect.class
org/wso2/bpmn/listaperitos/v1/MultipleSelect.class
